头歌答案/时序逻辑电路设计/移位寄存器的应用/debouncing/waveform.vcd
$date
	Fri Jan 14 09:40:22 2022
$end
$version
	Icarus Verilog
$end
$timescale
	1ns
$end
$scope module tb_debouncing $end
$scope module U1 $end
$var wire 1 ! sys_clk $end
$upscope $end
$upscope $end
$scope module tb_debouncing $end
$scope module U1 $end
$var wire 1 " sys_rst_n $end
$upscope $end
$upscope $end
$scope module tb_debouncing $end
$scope module U1 $end
$var wire 1 # clk_flag $end
$upscope $end
$upscope $end
$scope module tb_debouncing $end
$scope module U1 $end
$var wire 1 $ i_btn $end
$upscope $end
$upscope $end
$scope module tb_debouncing $end
$scope module U1 $end
$var wire 1 % o_btn $end
$upscope $end
$upscope $end
$enddefinitions $end
#0
$dumpvars
x%
0$
x#
0"
0!
$end
#5
0%
0#
1!
#10
0!
#15
1!
#20
1"
0!
#25
1$
1!
#30
0!
#35
0$
1!
#40
0!
#45
1$
1!
#50
0!
#55
1!
#60
0!
#65
1#
1!
#70
0!
#75
0#
1!
#80
0!
#85
1!
#90
0!
#95
1!
#100
0!
#105
0$
1!
#110
0!
#115
1$
1#
1!
#120
0!
#125
0#
1!
#130
0!
#135
1!
#140
0!
#145
1!
#150
0!
#155
1!
#160
0!
#165
1#
1!
#170
0!
#175
1%
0#
1!
